Chapter8: Time Dependent Covariates
…
Thus, it is important to identify a hazard-ratio function that well-approximates the actual changing hazard ratio.

Time Dependent Variables That Increase Linearly with Time

A common source of confusion is whether or not one could treat patient age as a time dependent variable.

We have seen the use of age at entry as a covariate in survival analysis, and this is a fixed quantity at time 0; the age of a patient at that time is fixed by definition. But we know that the age of a patient increases in lock step with time itself, so cant we treat increasing age as a time dependent variable?

The answer is yes, but doing so has no effect on the model.

We could illustrate this with any survival data set that includes age as a covariate; for convenience, we shall choose an example from the lung data set in the survival package. This data set consists of survival times in days of 228 patients with advanced lung cancer.

(tbl_lung <- as_data_frame(lung))

## # A tibble: 228 x 10
##     inst  time status   age   sex ph.ecog ph.karno pat.karno meal.cal
##  * <dbl> <dbl>  <dbl> <dbl> <dbl>   <dbl>    <dbl>     <dbl>    <dbl>
##  1     3   306      2    74     1       1       90       100     1175
##  2     3   455      2    68     1       0       90        90     1225
##  3     3  1010      1    56     1       0       90        90       NA
##  4     5   210      2    57     1       1       90        60     1150
##  5     1   883      2    60     1       0      100        90       NA
##  6    12  1022      1    74     1       1       50        80      513
##  7     7   310      2    68     2       2       70        60      384
##  8    11   361      2    71     2       2       60        80      538
##  9     1   218      2    53     1       1       70        80      825
## 10     7   166      2    61     1       2       70        70      271
## # ... with 218 more rows, and 1 more variable: wt.loss <dbl>
…
