Chapter10: Parametric Models
…
This result suggests a diagnostic tool to assess how well a set of survival data follow a Weibull distribution.

We first compute the Kaplan-Meier estimate \(\hat{S}\) of a survival distribution.

Then, we define \(y_i = \log\{-\log[\hat{S}(t_i)]\}\) and plot \(y_i\) versus \(\log(t_i)\). Finally, we fit through these points a straight line, with equation of the form \(y = b + m \log(t)\) where \(b = -\mu / \sigma\) and \(m = 1/\sigma\) are, respectively, the y-intercept and slope of the line.

If the plotted points fall along this fitted line, one may conclude that the survival data may be approximately modeled using a Weibull distribution. We first obtain a Kaplan-Meier estimate of the survival distribution,

# convert to tibble
(gastric_xelox <- as_data_frame(gastricXelox) %>% 
   mutate(timeMonths = timeWeeks * 7 / 30.25))

## Warning: package 'bindrcpp' was built under R version 3.4.4

## # A tibble: 48 x 3
##    timeWeeks delta timeMonths
##        <int> <int>      <dbl>
##  1         4     1      0.926
##  2         8     1      1.85 
##  3         8     1      1.85 
##  4         8     1      1.85 
##  5         9     1      2.08 
##  6        11     1      2.55 
##  7        12     1      2.78 
##  8        13     1      3.01 
##  9        16     1      3.70 
## 10        16     1      3.70 
## # ... with 38 more rows
…
The results, shown in above Fig, indicate that a Weibull distribution may not be appropriate for these data, since the points do not follow a linear relationship.

We now consider if a Weibull distribution is appropriate for the pharmacoSmoking data discussed in earlier chapters. Ignoring for now the covariate information, we may examine the survival times to assess the suitability of the Weibull distribution as a basis for modeling these data.

Recall that the survival time is denoted ttr and indicates the time to relapse (or censoring), and relapse is the censoring variable. We first re-define survival times listed as zero to 0.5,

# convert to tibble and if ttr == 0, change 0.5
(pharmaco_smoking <- pharmacoSmoking %>% 
  as_data_frame() %>% 
  mutate(ttr = ifelse(ttr == 0, 0.5, ttr)))

## # A tibble: 125 x 14
##       id   ttr relapse grp     age gender race  employment yearsSmoking
##    <int> <dbl>   <int> <fct> <int> <fct>  <fct> <fct>             <int>
##  1    21 182         0 patc    36 Male   white ft                   26
##  2   113  14         1 patc    41 Male   white other                27
##  3    39   5         1 comb    25 Female white other                12
##  4    80  16         1 comb    54 Male   white ft                   39
##  5    87   0.5       1 comb    45 Male   white other                30
##  6    29 182         0 comb    43 Male   hisp ft                   30
##  7    16  14         1 patc    66 Male   black pt                   54
##  8    35  77         1 patc    78 Female black other                56
##  9    54   2         1 patc    40 Female black ft                   25
## 10    70   0.5       1 patc    38 Male   black ft                   23
## # ... with 115 more rows, and 5 more variables: levelSmoking <fct>,
## #   ageGroup2 <fct>, ageGroup4 <fct>, priorAttempts <int>,
## #   longestNoSmoke <int>
…
