Chapter3: Nonparametric Survival Curve Estimation
…
# Make summary data frame (Age > 68)
tidy(CH_male_km_68) %>% 
  select(1:4) %>% 
  filter(n.event != 0) %>% 
  mutate(hazard = n.event / n.risk, 
         surv_km = cumprod(1 - hazard),   # KM method
         cum_hazard = cumsum(hazard),  
         surv_naa = exp(-cum_hazard)) %>% # NAA method
  tbl_df()

## # A tibble: 41 x 8
##     time n.risk n.event n.censor hazard surv_km cum_hazard surv_naa
##    <dbl>  <dbl>   <dbl>    <dbl>  <dbl>   <dbl>      <dbl>    <dbl>
##  1  72.4     24       1        0 0.0417   0.958     0.0417    0.959
##  2  72.7     25       1        0 0.04     0.92      0.0817    0.922
##  3  73       25       1        0 0.04     0.883     0.122     0.885
##  4  74.4     33       1        0 0.0303   0.856     0.152     0.859
##  5  74.5     33       1        0 0.0303   0.830     0.182     0.833
##  6  74.8     32       1        0 0.0312   0.805     0.214     0.808
##  7  75.6     34       1        0 0.0294   0.781     0.243     0.784
##  8  75.8     33       1        0 0.0303   0.757     0.273     0.761
##  9  75.9     33       1        1 0.0303   0.734     0.304     0.738
## 10  77.2     37       1        0 0.0270   0.714     0.331     0.719
## # ... with 31 more rows
…
# extract conf.high
upper_log_log_fit <- filter(df_log_log_fit, conf.high <= 0.5) %>% 
  summarise(upper = first(conf.high)) %>% 
  pull()  # upper does not reach 0.5, and undefined.

3.2. Find the first and third quartiles, and 95% confidence intervals for these quartiles in gastricXelox. If any of these quantities are undefined, explain.

# detect 0.25% and 0.75%, and 95% confident intervals
(df_km_2 <- df_km %>% 
  mutate(quant_low = estimate - std.error * qnorm(0.75), 
         quant_high = estimate + std.error * qnorm(0.75)) %>% 
  tbl_df())

## # A tibble: 39 x 10
##     time n.risk n.event n.censor estimate std.error conf.high conf.low
##    <dbl>  <dbl>   <dbl>    <dbl>    <dbl>     <dbl>     <dbl>    <dbl>
##  1 0.926     48       1        0    0.979    0.0211     0.997    0.861
##  2 1.85      47       3        0    0.917    0.0435     0.968    0.793
##  3 2.08      44       1        0    0.896    0.0492     0.955    0.768
##  4 2.55      43       1        0    0.875    0.0546     0.942    0.743
##  5 2.78      42       1        0    0.854    0.0596     0.928    0.718
##  6 3.01      41       1        0    0.833    0.0645     0.913    0.694
##  7 3.70      40       2        0    0.792    0.0740     0.882    0.647
##  8 3.93      38       2        0    0.750    0.0833     0.850    0.602
##  9 4.40      36       1        0    0.729    0.0880     0.833    0.580
## 10 4.86      35       1        0    0.708    0.0926     0.816    0.558
## # ... with 29 more rows, and 2 more variables: quant_low <dbl>,
## #   quant_high <dbl>
…
