Chapter3: Nonparametric Survival Curve Estimation
…
# KM method (Age > 68)
CH_male_km_68 <- surv_fit(Surv(entry, exit, cens, type = "counting") ~ 1, start.time = 68, data = CH_male)

# Make summary data frame
surv_summary(CH_male_km) %>% 
  select(1:4) %>% 
  filter(n.event != 0) %>% 
  mutate(hazard = n.event / n.risk, 
         surv_km = cumprod(1 - hazard),   # KM method
         cum_hazard = cumsum(hazard),  
         surv_naa = exp(-cum_hazard)) %>% # NAA method
  tbl_df()

## # A tibble: 43 x 8
##     time n.risk n.event n.censor hazard surv_km cum_hazard surv_naa
##    <dbl>  <dbl>   <dbl>    <dbl>  <dbl>   <dbl>      <dbl>    <dbl>
##  1  64.8      2       1        0 0.5        0.5       0.5     0.607
##  2  65.1      1       1        0 1          0         1.5     0.223
##  3  72.4     24       1        0 0.0417     0         1.54    0.214
##  4  72.7     25       1        0 0.04       0         1.58    0.206
##  5  73       25       1        0 0.04       0         1.62    0.198
##  6  74.4     33       1        0 0.0303     0         1.65    0.192
##  7  74.5     33       1        0 0.0303     0         1.68    0.186
##  8  74.8     32       1        0 0.0312     0         1.71    0.180
##  9  75.6     34       1        0 0.0294     0         1.74    0.175
## 10  75.8     33       1        0 0.0303     0         1.77    0.170
## #  with 33 more rows

# Make summary data frame (Age > 68)
surv_summary(CH_male_km_68) %>% 
  select(1:4) %>% 
  filter(n.event != 0) %>% 
  mutate(hazard = n.event / n.risk, 
         surv_km = cumprod(1 - hazard),   # KM method
         cum_hazard = cumsum(hazard),  
         surv_naa = exp(-cum_hazard)) %>% # NAA method
  tbl_df()

## # A tibble: 41 x 8
##     time n.risk n.event n.censor hazard surv_km cum_hazard surv_naa
##    <dbl>  <dbl>   <dbl>    <dbl>  <dbl>   <dbl>      <dbl>    <dbl>
##  1  72.4     25       1        0 0.04     0.96      0.04      0.961
##  2  72.7     26       1        0 0.0385   0.923     0.0785    0.925
##  3  73       26       1        0 0.0385   0.888     0.117     0.890
##  4  74.4     34       1        0 0.0294   0.861     0.146     0.864
##  5  74.5     34       1        0 0.0294   0.836     0.176     0.839
##  6  74.8     33       1        0 0.0303   0.811     0.206     0.814
##  7  75.6     35       1        0 0.0286   0.788     0.235     0.791
##  8  75.8     34       1        0 0.0294   0.764     0.264     0.768
##  9  75.9     34       1        1 0.0294   0.742     0.293     0.746
## 10  77.2     38       1        0 0.0263   0.722     0.320     0.726
## #  with 31 more rows
…
