Chapter4: Nonparametric Comparison of Survival Distributions
…
(pancreatic_tbl <- pancreatic %>% 
   tbl_df() %>%  
   # change factor to date in "onstudy", "progression" and "death"
   mutate(onstudy = mdy(as.character(onstudy)), 
          progression = mdy(as.character(progression)), 
          death = mdy(as.character(death))) %>% 
   # calculate PFS and OS (months)
   mutate(PFS = as.numeric(if_else(!is.na(progression), progression - onstudy, death - onstudy)) / 30, 
          OS = as.numeric(death - onstudy) / 30)
 )

## Warning: 15 failed to parse.

## # A tibble: 41 x 6
##    stage onstudy    progression death        PFS    OS
##    <fct> <date>     <date>      <date>     <dbl> <dbl>
##  1 M     2005-12-16 2006-02-02  2006-10-19  1.6  10.2 
##  2 M     2006-01-06 2006-02-26  2006-04-19  1.7   3.43
##  3 LA    2006-02-03 2006-08-02  2007-01-19  6    11.7 
##  4 M     2006-03-30 NA          2006-05-11  1.4   1.4 
##  5 LA    2006-04-27 2007-03-11  2007-05-29 10.6  13.2 
##  6 M     2006-05-07 2006-06-25  2006-10-11  1.63  5.23
##  7 LA    2006-08-20 NA          2007-01-24  5.23  5.23
##  8 M     2007-01-22 2007-03-20  2007-04-14  1.9   2.73
##  9 LA    2007-03-02 NA          2008-11-01 20.3  20.3 
## 10 M     2007-03-27 NA          2007-05-15  1.63  1.63
## #  with 31 more rows
…
